/////////////////////////////////////////////////////////
//                                                     //
//                       _oo0oo_                       //
//                      o8888888o                      //
//                      88" . "88                      //
//                      (| -_- |)                      //
//                      0\  =  /0                      //
//                    ___/`---'\___                    //
//                  .' \\|     |// '.                  //
//                 / \\|||  :  |||// \                 //
//                / _||||| -:- |||||- \                //
//               |   | \\\  -  /// |   |               //
//               | \_|  ''\---/''  |_/ |               //
//               \  .-\__  '-'  ___/-. /               //
//             ___'. .'  /--.--\  `. .'___             //
//          ."" '<  `.___\_<|>_/___.' >' "".           //
//         | | :  `- \`.;`\ _ /`;.`/ - ` : | |         //
//         \  \ `_.   \_ __\ /__ _/   .-` /  /         //
//     =====`-.____`.___ \_____/___.-`___.-'=====      //
//                       `=---='                       //
//                                                     //
//                                                     //
//     ~~~~~~~~~~~~~~~~~~~~~~~~~~~~~~~~~~~~~~~~~~~     //
//                                                     //
//  KHÔNG BUG!        KHÔNG CRASH!        ĐIỂM A!      //
//                                                     //
//                   A DI ĐÀ PHẬT !                    //
//                                                     //
/////////////////////////////////////////////////////////